{
    "version": 1,
    "build": "Sun, 16 Jun 2024 18:51:48 GMT",
    "platform": "linux",
    "shell": "fish",
    "": {
        "map": {
            "\t": "\\\t",
            "\r": "\\\r",
            "\f": "\\\f",
            " ": "\\ ",
            "\"": "\\\"",
            "#": "\\#",
            "$": "\\$",
            "&": "\\&",
            "'": "\\'",
            "(": "\\(",
            ")": "\\)",
            "*": "\\*",
            ";": "\\;",
            "<": "\\<",
            ">": "\\>",
            "?": "\\?",
            "[": "\\[",
            "\\": "\\\\",
            "{": "\\{",
            "|": "\\|",
            "}": "\\}",
            "~": "\\~"
        },
        "prevent": {
            "\f": {
                "caret": true
            },
            "!": {
                "caret": true
            },
            "#": {
                "caret": true
            },
            "%": {
                "caret": true
            },
            "&": {
                "caret": true
            },
            "+": {
                "caret": true
            },
            ",": {
                "caret": true
            },
            "-": {
                "caret": true
            },
            ".": {
                "caret": true
            },
            "/": {
                "caret": true
            },
            ":": {
                "caret": true
            },
            "=": {
                "caret": true
            },
            "@": {
                "caret": true
            },
            "[": {
                "caret": true
            },
            "]": {
                "caret": true
            },
            "^": {
                "caret": true
            },
            "_": {
                "caret": true
            },
            "`": {
                "caret": true
            },
            "~": {
                "caret": true
            }
        },
        "invalid": {
            "\n": true
        },
        "mapPattern": "[\t\r\f \"#$&'()*;<>?[\\\\{|}~]",
        "rejectPattern": "[\n]"
    },
    "'": {
        "map": {
            "'": "\\'",
            "\\": "\\\\"
        },
        "prevent": {
            "\t": {
                "backslash": true,
                "caret": true
            },
            "\r": {
                "backslash": true,
                "caret": true
            },
            "\n": {
                "backslash": true,
                "caret": true
            },
            "\f": {
                "backslash": true,
                "caret": true
            },
            " ": {
                "backslash": true,
                "caret": true
            },
            "!": {
                "backslash": true,
                "caret": true
            },
            "\"": {
                "backslash": true,
                "caret": true
            },
            "#": {
                "backslash": true,
                "caret": true
            },
            "$": {
                "backslash": true,
                "caret": true
            },
            "%": {
                "backslash": true,
                "caret": true
            },
            "&": {
                "backslash": true,
                "caret": true
            },
            "(": {
                "backslash": true,
                "caret": true
            },
            ")": {
                "backslash": true,
                "caret": true
            },
            "*": {
                "backslash": true,
                "caret": true
            },
            "+": {
                "backslash": true,
                "caret": true
            },
            ",": {
                "backslash": true,
                "caret": true
            },
            "-": {
                "backslash": true,
                "caret": true
            },
            ".": {
                "backslash": true,
                "caret": true
            },
            "/": {
                "backslash": true,
                "caret": true
            },
            ":": {
                "backslash": true,
                "caret": true
            },
            ";": {
                "backslash": true,
                "caret": true
            },
            "<": {
                "backslash": true,
                "caret": true
            },
            "=": {
                "backslash": true,
                "caret": true
            },
            ">": {
                "backslash": true,
                "caret": true
            },
            "?": {
                "backslash": true,
                "caret": true
            },
            "@": {
                "backslash": true,
                "caret": true
            },
            "[": {
                "backslash": true,
                "caret": true
            },
            "\\": {
                "caret": true
            },
            "]": {
                "backslash": true,
                "caret": true
            },
            "^": {
                "backslash": true,
                "caret": true
            },
            "_": {
                "backslash": true,
                "caret": true
            },
            "`": {
                "backslash": true,
                "caret": true
            },
            "{": {
                "backslash": true,
                "caret": true
            },
            "|": {
                "backslash": true,
                "caret": true
            },
            "}": {
                "backslash": true,
                "caret": true
            },
            "~": {
                "backslash": true,
                "caret": true
            }
        },
        "invalid": {},
        "mapPattern": "['\\\\]",
        "rejectPattern": "[]"
    },
    "\"": {
        "map": {
            "\"": "\\\"",
            "$": "\\$",
            "\\": "\\\\"
        },
        "prevent": {
            "\t": {
                "backslash": true,
                "caret": true
            },
            "\r": {
                "backslash": true,
                "caret": true
            },
            "\n": {
                "backslash": true,
                "caret": true
            },
            "\f": {
                "backslash": true,
                "caret": true
            },
            " ": {
                "backslash": true,
                "caret": true
            },
            "!": {
                "backslash": true,
                "caret": true
            },
            "#": {
                "backslash": true,
                "caret": true
            },
            "%": {
                "backslash": true,
                "caret": true
            },
            "&": {
                "backslash": true,
                "caret": true
            },
            "'": {
                "backslash": true,
                "caret": true
            },
            "(": {
                "backslash": true,
                "caret": true
            },
            ")": {
                "backslash": true,
                "caret": true
            },
            "*": {
                "backslash": true,
                "caret": true
            },
            "+": {
                "backslash": true,
                "caret": true
            },
            ",": {
                "backslash": true,
                "caret": true
            },
            "-": {
                "backslash": true,
                "caret": true
            },
            ".": {
                "backslash": true,
                "caret": true
            },
            "/": {
                "backslash": true,
                "caret": true
            },
            ":": {
                "backslash": true,
                "caret": true
            },
            ";": {
                "backslash": true,
                "caret": true
            },
            "<": {
                "backslash": true,
                "caret": true
            },
            "=": {
                "backslash": true,
                "caret": true
            },
            ">": {
                "backslash": true,
                "caret": true
            },
            "?": {
                "backslash": true,
                "caret": true
            },
            "@": {
                "backslash": true,
                "caret": true
            },
            "[": {
                "backslash": true,
                "caret": true
            },
            "\\": {
                "caret": true
            },
            "]": {
                "backslash": true,
                "caret": true
            },
            "^": {
                "backslash": true,
                "caret": true
            },
            "_": {
                "backslash": true,
                "caret": true
            },
            "`": {
                "backslash": true,
                "caret": true
            },
            "{": {
                "backslash": true,
                "caret": true
            },
            "|": {
                "backslash": true,
                "caret": true
            },
            "}": {
                "backslash": true,
                "caret": true
            },
            "~": {
                "backslash": true,
                "caret": true
            }
        },
        "invalid": {},
        "mapPattern": "[\"$\\\\]",
        "rejectPattern": "[]"
    }
}